mc20_13TeV.410081.MadGraphPythia8EvtGen_A14NNPDF23_ttbarWW.deriv.DAOD_PHYSLITE.e4111_s3681_r13144_p6490
mc20_13TeV.410081.MadGraphPythia8EvtGen_A14NNPDF23_ttbarWW.deriv.DAOD_PHYSLITE.e4111_s3681_r13145_p6490
mc20_13TeV.410081.MadGraphPythia8EvtGen_A14NNPDF23_ttbarWW.deriv.DAOD_PHYSLITE.e4111_s3681_r13167_p6490


mc20_13TeV.500461.MGPy8EG_A14NNPDF23LO_ttWH.deriv.DAOD_PHYS.e8041_a907_r14859_p6490
mc20_13TeV.500461.MGPy8EG_A14NNPDF23LO_ttWH.deriv.DAOD_PHYS.e8041_a907_r14860_p6490
mc20_13TeV.500461.MGPy8EG_A14NNPDF23LO_ttWH.deriv.DAOD_PHYS.e8041_a907_r14861_p6490


mc20_13TeV.500462.MGPy8EG_A14NNPDF23LO_ttZZ.deriv.DAOD_PHYS.e8041_a907_r14859_p6490
mc20_13TeV.500462.MGPy8EG_A14NNPDF23LO_ttZZ.deriv.DAOD_PHYS.e8041_a907_r14860_p6490
mc20_13TeV.500462.MGPy8EG_A14NNPDF23LO_ttZZ.deriv.DAOD_PHYS.e8041_a907_r14861_p6490


mc20_13TeV.500463.MGPy8EG_A14NNPDF23LO_ttWZ.deriv.DAOD_PHYS.e8041_a907_r14859_p6490
mc20_13TeV.500463.MGPy8EG_A14NNPDF23LO_ttWZ.deriv.DAOD_PHYS.e8041_a907_r14860_p6490
mc20_13TeV.500463.MGPy8EG_A14NNPDF23LO_ttWZ.deriv.DAOD_PHYS.e8041_a907_r14861_p6490
