mc20_13TeV.603559.PhPy8EG_PDF4LHC21_HHbbyy_chhh1p0.deriv.DAOD_PHYSLITE.e8564_s3889_r13167_p6490
mc20_13TeV.603559.PhPy8EG_PDF4LHC21_HHbbyy_chhh1p0.deriv.DAOD_PHYSLITE.e8564_s3889_r13144_p6490
mc20_13TeV.603559.PhPy8EG_PDF4LHC21_HHbbyy_chhh1p0.deriv.DAOD_PHYSLITE.e8564_s3889_r13145_p6490
