mc20_13TeV.525376.MGPy8EG_hh_bbyy_vbf_novhh_l1cvv1cv1_5fns.deriv.DAOD_PHYSLITE.e8555_s3797_r13167_p6490
mc20_13TeV.525376.MGPy8EG_hh_bbyy_vbf_novhh_l1cvv1cv1_5fns.deriv.DAOD_PHYSLITE.e8555_s3797_r13144_p6490
mc20_13TeV.525376.MGPy8EG_hh_bbyy_vbf_novhh_l1cvv1cv1_5fns.deriv.DAOD_PHYSLITE.e8555_s3797_r13145_p6490
