mc23_13p6TeV.601631.PhPy8EG_tW_DS_dyn_incl_top.deriv.DAOD_PHYSLITE.e8549_s4159_r15224_p6491
mc23_13p6TeV.601631.PhPy8EG_tW_DS_dyn_incl_top.deriv.DAOD_PHYSLITE.e8549_s4162_r14622_p6491


mc23_13p6TeV.601627.PhPy8EG_tW_DS_dyn_incl_antitop.deriv.DAOD_PHYSLITE.e8549_s4159_r15224_p6491
mc23_13p6TeV.601627.PhPy8EG_tW_DS_dyn_incl_antitop.deriv.DAOD_PHYSLITE.e8549_s4162_r14622_p6491
