mc20_13TeV.700600.Sh_2212_llll.deriv.DAOD_PHYS.e8433_s3681_r13167_p6490
mc20_13TeV.700600.Sh_2212_llll.deriv.DAOD_PHYS.e8433_s3681_r13144_p6490
mc20_13TeV.700600.Sh_2212_llll.deriv.DAOD_PHYS.e8433_s3681_r13145_p6490

mc20_13TeV.700601.Sh_2212_lllv.deriv.DAOD_PHYS.e8433_s3681_r13167_p6490
mc20_13TeV.700601.Sh_2212_lllv.deriv.DAOD_PHYS.e8433_s3681_r13144_p6490
mc20_13TeV.700601.Sh_2212_lllv.deriv.DAOD_PHYS.e8433_s3681_r13145_p6490

mc20_13TeV.700602.Sh_2212_llvv_os.deriv.DAOD_PHYS.e8433_s3681_r13167_p6490
mc20_13TeV.700602.Sh_2212_llvv_os.deriv.DAOD_PHYS.e8433_s3681_r13144_p6490
mc20_13TeV.700602.Sh_2212_llvv_os.deriv.DAOD_PHYS.e8433_s3681_r13145_p6490

mc20_13TeV.701055.Sh_2214_llvv_ss.deriv.DAOD_PHYS.e8547_s3797_r13144_p6490
mc20_13TeV.701055.Sh_2214_llvv_ss.deriv.DAOD_PHYS.e8547_s3797_r13145_p6490
mc20_13TeV.701055.Sh_2214_llvv_ss.deriv.DAOD_PHYS.e8547_s3797_r13167_p6490

mc20_13TeV.700604.Sh_2212_lvvv.deriv.DAOD_PHYS.e8433_s3681_r13167_p6490
mc20_13TeV.700604.Sh_2212_lvvv.deriv.DAOD_PHYS.e8433_s3681_r13144_p6490
mc20_13TeV.700604.Sh_2212_lvvv.deriv.DAOD_PHYS.e8433_s3681_r13145_p6490

mc20_13TeV.700605.Sh_2212_vvvv.deriv.DAOD_PHYS.e8433_s3681_r13167_p6490
mc20_13TeV.700605.Sh_2212_vvvv.deriv.DAOD_PHYS.e8433_s3681_r13144_p6490
mc20_13TeV.700605.Sh_2212_vvvv.deriv.DAOD_PHYS.e8433_s3681_r13145_p6490
