mc20_13TeV.410408.aMcAtNloPythia8EvtGen_tWZ_Ztoll_minDR1.deriv.DAOD_PHYS.e6423_s3681_r13144_p6490
mc20_13TeV.410408.aMcAtNloPythia8EvtGen_tWZ_Ztoll_minDR1.deriv.DAOD_PHYS.e6423_s3681_r13145_p6490
mc20_13TeV.410408.aMcAtNloPythia8EvtGen_tWZ_Ztoll_minDR1.deriv.DAOD_PHYS.e6423_s3681_r13167_p6490
